{
  "name": "Deno",
  "dockerComposeFile": "docker-compose.yml",
  "service": "app",
  "workspaceFolder": "/workspace",

  // Set *default* container specific settings.json values on container create.
  "settings": {
    "terminal.integrated.profiles.linux": {
      "bash": {
        "path": "bash",
        "icon": "terminal-bash"
      }
    }
  },

  // Add the IDs of extensions you want installed when the container is created.
  "extensions": ["denoland.vscode-deno", "esbenp.prettier-vscode"],

  // Use 'forwardPorts' to make a list of ports inside the container available locally.
  // "forwardPorts": [],

  // Uncomment to use the Docker CLI from inside the container. See https://aka.ms/vscode-remote/samples/docker-from-docker.
  // "mounts": [ "source=/var/run/docker.sock,target=/var/run/docker.sock,type=bind" ],

  // Comment out connect as root instead. More info: https://aka.ms/vscode-remote/containers/non-root.
  "remoteUser": "vscode"
}
